9357
2241
923
1947
5968
6904
1372
3456
9414
682
8900
7727
5095
8678
9624
6238
4588
1869
9179
7434
9826
2927
9073
4379
469
3838
3811
5093
5151
8015
8244
4440
2715
3087
916
4822
9547
9428
1676
7621
374
4697
8764
3381
6432
8080
7780
9394
6745
3493
85
2644
1735
8680
7420
1415
5049
4332
2022
6662
7290
7419
1091
8766
8703
8109
32
8777
9295
861
6905
232
2659
5136
6402
8841
5458
4983
5629
8181
4189
6978
6668
6001
9102
49
3656
2338
8239
1875
7913
3010
564
6297
3801
8628
2691
1595
6562
730
2899
7374
2312
545
2790
7452
4307
2305
8983
7189
5176
3557
668
1309
8351
2080
6081
5669
5706
2837
6110
1876
6720
9948
7026
8707
14
3350
2925
4872
230
6578
4746
8405
8165
5344
533
9694
3475
6037
9227
1674
5198
154
5023
4287
9644
3243
5985
9642
6837
344
4819
7437
6470
7433
7807
606
2470
9218
4803
5402
3457
5519
3539
6142
8198
2305
6562
8842
5541
5086
5088
3210
5806
5295
5228
8155
870
3257
8876
7562
1771
1975
4481
130
6784
2431
2970
1751
2350
8746
4686
5195
6027
2600
4121
603
8806
6948
1363
2068
5185
7397
30
2970
8638
839
6959
2006
4243
4786
8378
6401
5780
5972
4982
6517
6787
5810
1918
3969
3371
4922
972
6183
8339
6532
5145
7242
3838
4294
2509
4540
549
7236
5686
1268
4654
2989
1384
7611
9455
8229
5527
5094
1887
1678
6724
5585
2933
5933
5899
4887
8106
3962
8557
4445
4986
99
7385
5019
3522
6424
3333
3221
8447
7372
7289
1680
2831
1144
48
4349
8639
8012
4
9369
4759
1303
2742
4348
6295
1125
5936
4973
2691
6577
7831
9642
9942
1257
7309
2881
5523
913
889
4510
865
1240
135
5462
1685
1842
6998
3748
9312
7625
803
3896
4783
6834
5561
8916
6458
5469
5674
4588
6445
6820
9705
7104
9993
9810
4181
688
3196
430
5588
8999
6021
445
2999
2716
5707
8737
4619
8694
5579
735
1755
2548
2673
7210
6428
7096
9171
5777
2065
5886
637
6868
2197
8866
1086
3523
5288
6450
7161
2104
1868
3659
379
519
9026
1865
8003
324
525
4035
4489
9882
5909
2486
9384
9964
9835
6673
9686
6204
4256
3051
4111
1191
3368
7412
6128
8204
7416
1855
615
6219
8664
4308
4292
9263
5119
2745
3187
2714
9634
993
4008
6898
8493
7165
82
2719
3432
8487
7997
340
3671
305
4353
5477
5905
6276
2897
7236
160
2825
2252
178
3065
4372
3814
7728
2635
9033
15
5373
561
1798
6670
2714
6116
42
6060
1371
7526
9400
2722
8301
6492
1229
1871
9149
7592
467
8071
5394
2622
8052
2361
1424
2886
9587
2215
5248
6693
8922
2814
9327
8695
3714
6979
9145
9548
5605
5802
7213
4525
9801
4270
9026
8933
7610
5200
285
4169
9723
3692
4539
1390
6656
2413
842
231
4570
25
6595
5311
2873
296
6945
6267
2031
4278
9861
5342
2144
8100
2808
4524
6821
5637
4120
8396
7024
4904
6248
6807
7511
4703
5124
5519
1890
5602
6697
1153
5271
6639
2112
158
3553
8890
4633
7918
5571
4383
7868
3761
5554
4801
8313
7948
7073
3670
295
3121
799
9294
1735
7664
9030
8883
5335
5383
8155
2282
5646
5980
6335
4002
4977
7071
4258
9877
9335
1264
2104
4279
7056
9622
2739
8613
8900
3215
3649
6184
834
2200
8340
7424
4068
3792
2120
4899
4922
3410
7851
1175
6950
9112
6425
6716
5996
4130
1782
6963
2848
3045
1636
5496
5319
409
946
5062
7115
1179
61
2291
3184
2355
4047
2838
1116
7173
5441
8833
5100
7501
2343
788
2275
9804
9586
7940
8530
6852
5114
7764
5520
1998
9965
8318
3410
909
5896
3198
4894
7720
8907
2361
7078
251
707
6859
1830
9225
871
2120
2020
2196
7886
1737
9032
1583
6113
5209
6056
2433
6453
4138
1520
1982
9061
431
9902
6278
2800
3534
8747
1263
3974
6152
1105
903
725
3602
1943
6010
3496
2528
4189
6816
4743
9433
7829
3043
1029
4868
2102
7019
4824
6632
3959
5901
3109
6676
2831
5044
641
9325
8652
1515
5199
4107
7289
7212
7237
4951
3923
737
4090
1673
5408
4802
8058
8118
1239
478
8507
8317
9516
687
2441
7249
5474
820
4448
9267
7630
7160
4691
8339
7477
7262
218
1602
8330
9535
5785
4902
7840
2617
2436
5504
9351
4736
3962
3004
79
8032
13
4715
2885
1392
5752
9623
8978
1423
3806
5495
5864
2080
2214
5440
7051
7158
5174
8201
5919
3958
7736
426
8946
8748
8087
5610
4393
4278
8908
8415
3045
5514
9859
4122
2763
4780
4402
9727
5512
6926
5325
7498
7654
5802
9535
9087
62
2230
6593
5894
6754
605
9711
2453
2253
7339
9744
1944
7721
8521
821
4788
3628
2898
7849
521
3560
2872
2908
794
6221
9396
6638
6500
1137
1925
7459
6152
2480
8527
463
5824
9255
3066
3265
9389
1982
470
1147
3425
967
7065
6180
7566
9444
155
1224
9501
8254
6774
7444
6223
913
939
7941
4204
3567
8048
152
9304
166
265
6028
4169
5730
9207
4433
4019
106
270
6003
6570
5878
3040
4365
7730
9674
1638
8517
6659
8185
9849
123
7927
3615
6234
7936
8237
8983
7588
2777
3868
5832
3094
7972
4925
3082
5524
7622
8787
5647
6146
7828
7535
9831
3213
2791
7773
5864
2223
1892
3168
9296
2409
2502
6888
5133
1733
1704
6410
4439
3242
2121
9713
2420
5111
408
4312
3052
9621
6059
535
8312
1040
8014
2156
7205
889
6713
7191
6818
3471
6628
9715
8011
5932
3900
8944
1554
6681
5397
419
4002
5468
1069
926
5670
8025
2261
9443
8467
4937
8735
7017
4957
4794
968
9153
2571
9851
9555
6325
6787
8116
24
2373
4090
6308
5017
2956
1868
3078
1603
7897
5481
4362
796
9346
8263
1781
4194
7810
6673
2339
8285
6430
176
1255
1090
7895
1010
528
1416
7607
2389